<?xml version="1.0" encoding="UTF-8"?>
<kml xmlns="http://www.opengis.net/kml/2.2" xmlns:gx="http://www.google.com/kml/ext/2.2" xmlns:kml="http://www.opengis.net/kml/2.2" xmlns:atom="http://www.w3.org/2005/Atom">
<Document>
	<name>Departs.kml</name>
	<open>1</open>
	<StyleMap id="msn_ylw-pushpin2">
		<Pair>
			<key>normal</key>
			<styleUrl>runtime://clone4#sn_ylw-pushpin0</styleUrl>
		</Pair>
		<Pair>
			<key>highlight</key>
			<styleUrl>runtime://clone4#sh_ylw-pushpin2</styleUrl>
		</Pair>
	</StyleMap>
	<Style id="sh_ylw-pushpin0">
		<IconStyle>
			<color>00ffffff</color>
			<scale>1.3</scale>
			<Icon>
				<href>http://maps.google.com/mapfiles/kml/pushpin/ylw-pushpin.png</href>
			</Icon>
			<hotSpot x="20" y="2" xunits="pixels" yunits="pixels"/>
		</IconStyle>
		<LabelStyle>
			<color>00ffffff</color>
		</LabelStyle>
	</Style>
	<Style id="sn_ylw-pushpin2">
		<IconStyle>
			<color>00ffffff</color>
			<scale>1.1</scale>
			<Icon>
				<href>http://maps.google.com/mapfiles/kml/pushpin/ylw-pushpin.png</href>
			</Icon>
			<hotSpot x="20" y="2" xunits="pixels" yunits="pixels"/>
		</IconStyle>
		<LabelStyle>
			<color>00ffffff</color>
		</LabelStyle>
	</Style>
	<Style id="failed">
		<LabelStyle>
			<color>ff00ffff</color>
		</LabelStyle>
	</Style>
	<StyleMap id="msn_ylw-pushpin0">
		<Pair>
			<key>normal</key>
			<styleUrl>#sn_ylw-pushpin2</styleUrl>
		</Pair>
		<Pair>
			<key>highlight</key>
			<styleUrl>#sh_ylw-pushpin1</styleUrl>
		</Pair>
	</StyleMap>
	<Style id="sh_ylw-pushpin1">
		<IconStyle>
			<color>00ffffff</color>
			<scale>1.3</scale>
			<Icon>
				<href>http://maps.google.com/mapfiles/kml/pushpin/ylw-pushpin.png</href>
			</Icon>
			<hotSpot x="20" y="2" xunits="pixels" yunits="pixels"/>
		</IconStyle>
		<LabelStyle>
			<color>00ffffff</color>
		</LabelStyle>
	</Style>
	<StyleMap id="msn_ylw-pushpin">
		<Pair>
			<key>normal</key>
			<styleUrl>#sn_ylw-pushpin1</styleUrl>
		</Pair>
		<Pair>
			<key>highlight</key>
			<styleUrl>#sh_ylw-pushpin0</styleUrl>
		</Pair>
	</StyleMap>
	<StyleMap id="msn_ylw-pushpin1">
		<Pair>
			<key>normal</key>
			<styleUrl>#sn_ylw-pushpin</styleUrl>
		</Pair>
		<Pair>
			<key>highlight</key>
			<styleUrl>#sh_ylw-pushpin</styleUrl>
		</Pair>
	</StyleMap>
	<Style id="failed0">
		<LabelStyle>
			<color>ff00ffff</color>
		</LabelStyle>
	</Style>
	<Style id="sn_ylw-pushpin1">
		<IconStyle>
			<color>00ffffff</color>
			<scale>1.1</scale>
			<Icon>
				<href>http://maps.google.com/mapfiles/kml/pushpin/ylw-pushpin.png</href>
			</Icon>
			<hotSpot x="20" y="2" xunits="pixels" yunits="pixels"/>
		</IconStyle>
		<LabelStyle>
			<color>00ffffff</color>
		</LabelStyle>
	</Style>
	<Style id="sn_ylw-pushpin">
		<IconStyle>
			<color>00ffffff</color>
			<scale>1.1</scale>
			<Icon>
				<href>http://maps.google.com/mapfiles/kml/pushpin/ylw-pushpin.png</href>
			</Icon>
			<hotSpot x="20" y="2" xunits="pixels" yunits="pixels"/>
		</IconStyle>
		<LabelStyle>
			<color>00ffffff</color>
		</LabelStyle>
	</Style>
	<Style id="sh_ylw-pushpin">
		<IconStyle>
			<color>00ffffff</color>
			<scale>1.3</scale>
			<Icon>
				<href>http://maps.google.com/mapfiles/kml/pushpin/ylw-pushpin.png</href>
			</Icon>
			<hotSpot x="20" y="2" xunits="pixels" yunits="pixels"/>
		</IconStyle>
		<LabelStyle>
			<color>00ffffff</color>
		</LabelStyle>
	</Style>
	<StyleMap id="msn_ylw-pushpin20">
		<Pair>
			<key>normal</key>
			<styleUrl>#failed</styleUrl>
		</Pair>
		<Pair>
			<key>highlight</key>
			<styleUrl>#failed0</styleUrl>
		</Pair>
	</StyleMap>
	<Folder>
		<name>Departs K1000</name>
		<open>1</open>
		<Placemark>
			<name>Orleanoide</name>
			<open>1</open>
			<LookAt>
				<longitude>1.937672254244269</longitude>
				<latitude>47.89831236085674</latitude>
				<altitude>0</altitude>
				<heading>86.59471023731551</heading>
				<tilt>58.98813310569961</tilt>
				<range>581.8478616495207</range>
				<gx:altitudeMode>relativeToSeaFloor</gx:altitudeMode>
			</LookAt>
			<styleUrl>#msn_ylw-pushpin20</styleUrl>
			<Point>
				<coordinates>1.937672254244269,47.89831236085674,0</coordinates>
			</Point>
		</Placemark>
		<Placemark>
			<name>FleuryLesAubrais</name>
			<visibility>0</visibility>
			<LookAt>
				<longitude>1.923511439097519</longitude>
				<latitude>47.93112482864067</latitude>
				<altitude>0</altitude>
				<heading>-107.3314897146397</heading>
				<tilt>74.17237267873271</tilt>
				<range>6.90535764992191</range>
				<gx:altitudeMode>relativeToSeaFloor</gx:altitudeMode>
			</LookAt>
			<styleUrl>#msn_ylw-pushpin0</styleUrl>
			<Point>
				<coordinates>1.923511439097519,47.93112482864067,0</coordinates>
			</Point>
		</Placemark>
		<Placemark>
			<name>Tokyo</name>
			<visibility>0</visibility>
			<LookAt>
				<longitude>139.8174802006694</longitude>
				<latitude>35.63279083896595</latitude>
				<altitude>0</altitude>
				<heading>-51.78052026197082</heading>
				<tilt>83.52700060067239</tilt>
				<range>84.00747803253854</range>
				<gx:altitudeMode>relativeToSeaFloor</gx:altitudeMode>
			</LookAt>
			<styleUrl>#msn_ylw-pushpin</styleUrl>
			<Point>
				<coordinates>139.8174802006694,35.63279083896595,0</coordinates>
			</Point>
		</Placemark>
		<Placemark>
			<name>NewYork</name>
			<visibility>0</visibility>
			<LookAt>
				<longitude>-74.04260862558736</longitude>
				<latitude>40.69014671785849</latitude>
				<altitude>0</altitude>
				<heading>53.69630692677834</heading>
				<tilt>77.83719261900006</tilt>
				<range>103.6221994126319</range>
				<gx:altitudeMode>relativeToSeaFloor</gx:altitudeMode>
			</LookAt>
			<styleUrl>#msn_ylw-pushpin1</styleUrl>
			<Point>
				<coordinates>-74.04260862558736,40.69014671785849,0</coordinates>
			</Point>
		</Placemark>
		<Placemark>
			<name>SaoPaulo</name>
			<visibility>0</visibility>
			<LookAt>
				<longitude>-46.75824057622037</longitude>
				<latitude>-23.52389040247905</latitude>
				<altitude>0</altitude>
				<heading>101.7083680571692</heading>
				<tilt>70.24445298777816</tilt>
				<range>106.0825355510477</range>
				<gx:altitudeMode>relativeToSeaFloor</gx:altitudeMode>
			</LookAt>
			<styleUrl>#msn_ylw-pushpin2</styleUrl>
			<Point>
				<coordinates>-46.75824057622037,-23.52389040247905,0</coordinates>
			</Point>
		</Placemark>
	</Folder>
</Document>
</kml>
